<?xml version="1.0" encoding="UTF-8" standalone="no"?>
<!-- Created with Inkscape (http://www.inkscape.org/) -->

<svg
   xmlns:dc="http://purl.org/dc/elements/1.1/"
   xmlns:cc="http://creativecommons.org/ns#"
   xmlns:rdf="http://www.w3.org/1999/02/22-rdf-syntax-ns#"
   xmlns:svg="http://www.w3.org/2000/svg"
   xmlns="http://www.w3.org/2000/svg"
   xmlns:xlink="http://www.w3.org/1999/xlink"
   xmlns:sodipodi="http://sodipodi.sourceforge.net/DTD/sodipodi-0.dtd"
   xmlns:inkscape="http://www.inkscape.org/namespaces/inkscape"
   width="744.09448"
   height="1052.3622"
   id="svg4700"
   version="1.1"
   inkscape:version="0.91 r13725"
   viewBox="0 0 744.09448 1052.3622"
   sodipodi:docname="area.svg"
   inkscape:export-filename="/home/javi/Documents/Git/Surf/documentation/configuration file/figures/area2.png"
   inkscape:export-xdpi="90"
   inkscape:export-ydpi="90">
  <defs
     id="defs4702">
    <marker
       inkscape:stockid="Arrow1Mstart"
       orient="auto"
       refY="0.0"
       refX="0.0"
       id="Arrow1Mstart"
       style="overflow:visible"
       inkscape:isstock="true">
      <path
         id="path4810"
         d="M 0.0,0.0 L 5.0,-5.0 L -12.5,0.0 L 5.0,5.0 L 0.0,0.0 z "
         style="fill-rule:evenodd;stroke:#000000;stroke-width:1.0pt"
         transform="scale(0.4) translate(10,0)" />
    </marker>
    <marker
       inkscape:isstock="true"
       style="overflow:visible"
       id="marker7756"
       refX="0.0"
       refY="0.0"
       orient="auto"
       inkscape:stockid="Arrow1Mstart">
      <path
         transform="scale(0.4) translate(10,0)"
         style="fill-rule:evenodd;stroke:#ff0000;stroke-width:1pt;stroke-opacity:1;fill:#ff0000;fill-opacity:1"
         d="M 0.0,0.0 L 5.0,-5.0 L -12.5,0.0 L 5.0,5.0 L 0.0,0.0 z "
         id="path7758" />
    </marker>
    <marker
       inkscape:stockid="Arrow1Mend"
       orient="auto"
       refY="0.0"
       refX="0.0"
       id="Arrow1Mend"
       style="overflow:visible;"
       inkscape:isstock="true">
      <path
         id="path5274"
         d="M 0.0,0.0 L 5.0,-5.0 L -12.5,0.0 L 5.0,5.0 L 0.0,0.0 z "
         style="fill-rule:evenodd;stroke:#ff0000;stroke-width:1pt;stroke-opacity:1;fill:#ff0000;fill-opacity:1"
         transform="scale(0.4) rotate(180) translate(10,0)" />
    </marker>
    <marker
       inkscape:stockid="Arrow1Mend"
       orient="auto"
       refY="0"
       refX="0"
       id="Arrow1Mend-3"
       style="overflow:visible"
       inkscape:isstock="true">
      <path
         inkscape:connector-curvature="0"
         id="path5274-6"
         d="M 0,0 5,-5 -12.5,0 5,5 0,0 Z"
         style="fill:#ff0000;fill-opacity:1;fill-rule:evenodd;stroke:#ff0000;stroke-width:1pt;stroke-opacity:1"
         transform="matrix(-0.4,0,0,-0.4,-4,0)" />
    </marker>
    <marker
       inkscape:stockid="Arrow1Mend"
       orient="auto"
       refY="0"
       refX="0"
       id="Arrow1Mend-3-3"
       style="overflow:visible"
       inkscape:isstock="true">
      <path
         inkscape:connector-curvature="0"
         id="path5274-6-5"
         d="M 0,0 5,-5 -12.5,0 5,5 0,0 Z"
         style="fill:#ff0000;fill-opacity:1;fill-rule:evenodd;stroke:#ff0000;stroke-width:1pt;stroke-opacity:1"
         transform="matrix(-0.4,0,0,-0.4,-4,0)" />
    </marker>
    <marker
       inkscape:stockid="Arrow1Mend"
       orient="auto"
       refY="0"
       refX="0"
       id="Arrow1Mend-3-3-0"
       style="overflow:visible"
       inkscape:isstock="true">
      <path
         inkscape:connector-curvature="0"
         id="path5274-6-5-6"
         d="M 0,0 5,-5 -12.5,0 5,5 0,0 Z"
         style="fill:#ff0000;fill-opacity:1;fill-rule:evenodd;stroke:#ff0000;stroke-width:1pt;stroke-opacity:1"
         transform="matrix(-0.4,0,0,-0.4,-4,0)" />
    </marker>
    <marker
       inkscape:stockid="Arrow1Mend"
       orient="auto"
       refY="0"
       refX="0"
       id="Arrow1Mend-3-3-8"
       style="overflow:visible"
       inkscape:isstock="true">
      <path
         inkscape:connector-curvature="0"
         id="path5274-6-5-7"
         d="M 0,0 5,-5 -12.5,0 5,5 0,0 Z"
         style="fill:#ff0000;fill-opacity:1;fill-rule:evenodd;stroke:#ff0000;stroke-width:1pt;stroke-opacity:1"
         transform="matrix(-0.4,0,0,-0.4,-4,0)" />
    </marker>
    <marker
       inkscape:stockid="Arrow1Mend"
       orient="auto"
       refY="0"
       refX="0"
       id="Arrow1Mend-3-3-8-2"
       style="overflow:visible"
       inkscape:isstock="true">
      <path
         inkscape:connector-curvature="0"
         id="path5274-6-5-7-3"
         d="M 0,0 5,-5 -12.5,0 5,5 0,0 Z"
         style="fill:#ff0000;fill-opacity:1;fill-rule:evenodd;stroke:#ff0000;stroke-width:1pt;stroke-opacity:1"
         transform="matrix(-0.4,0,0,-0.4,-4,0)" />
    </marker>
    <marker
       inkscape:stockid="Arrow1Mend"
       orient="auto"
       refY="0"
       refX="0"
       id="Arrow1Mend-3-9"
       style="overflow:visible"
       inkscape:isstock="true">
      <path
         inkscape:connector-curvature="0"
         id="path5274-6-3"
         d="M 0,0 5,-5 -12.5,0 5,5 0,0 Z"
         style="fill:#ff0000;fill-opacity:1;fill-rule:evenodd;stroke:#ff0000;stroke-width:1pt;stroke-opacity:1"
         transform="matrix(-0.4,0,0,-0.4,-4,0)" />
    </marker>
    <marker
       inkscape:stockid="Arrow1Mend"
       orient="auto"
       refY="0"
       refX="0"
       id="Arrow1Mend-3-3-0-7"
       style="overflow:visible"
       inkscape:isstock="true">
      <path
         inkscape:connector-curvature="0"
         id="path5274-6-5-6-8"
         d="M 0,0 5,-5 -12.5,0 5,5 0,0 Z"
         style="fill:#ff0000;fill-opacity:1;fill-rule:evenodd;stroke:#ff0000;stroke-width:1pt;stroke-opacity:1"
         transform="matrix(-0.4,0,0,-0.4,-4,0)" />
    </marker>
    <marker
       inkscape:stockid="Arrow1Mend"
       orient="auto"
       refY="0"
       refX="0"
       id="Arrow1Mend-3-9-0"
       style="overflow:visible"
       inkscape:isstock="true">
      <path
         inkscape:connector-curvature="0"
         id="path5274-6-3-6"
         d="M 0,0 5,-5 -12.5,0 5,5 0,0 Z"
         style="fill:#ff0000;fill-opacity:1;fill-rule:evenodd;stroke:#ff0000;stroke-width:1pt;stroke-opacity:1"
         transform="matrix(-0.4,0,0,-0.4,-4,0)" />
    </marker>
    <marker
       inkscape:stockid="Arrow1Mend"
       orient="auto"
       refY="0"
       refX="0"
       id="Arrow1Mend-3-9-0-5"
       style="overflow:visible"
       inkscape:isstock="true">
      <path
         inkscape:connector-curvature="0"
         id="path5274-6-3-6-5"
         d="M 0,0 5,-5 -12.5,0 5,5 0,0 Z"
         style="fill:#ff0000;fill-opacity:1;fill-rule:evenodd;stroke:#ff0000;stroke-width:1pt;stroke-opacity:1"
         transform="matrix(-0.4,0,0,-0.4,-4,0)" />
    </marker>
    <marker
       inkscape:stockid="Arrow1Mend"
       orient="auto"
       refY="0"
       refX="0"
       id="Arrow1Mend-3-3-8-2-7"
       style="overflow:visible"
       inkscape:isstock="true">
      <path
         inkscape:connector-curvature="0"
         id="path5274-6-5-7-3-6"
         d="M 0,0 5,-5 -12.5,0 5,5 0,0 Z"
         style="fill:#ff0000;fill-opacity:1;fill-rule:evenodd;stroke:#ff0000;stroke-width:1pt;stroke-opacity:1"
         transform="matrix(-0.4,0,0,-0.4,-4,0)" />
    </marker>
    <marker
       inkscape:stockid="Arrow1Mend"
       orient="auto"
       refY="0"
       refX="0"
       id="Arrow1Mend-3-3-3"
       style="overflow:visible"
       inkscape:isstock="true">
      <path
         inkscape:connector-curvature="0"
         id="path5274-6-5-67"
         d="M 0,0 5,-5 -12.5,0 5,5 0,0 Z"
         style="fill:#ff0000;fill-opacity:1;fill-rule:evenodd;stroke:#ff0000;stroke-width:1pt;stroke-opacity:1"
         transform="matrix(-0.4,0,0,-0.4,-4,0)" />
    </marker>
    <marker
       inkscape:stockid="Arrow1Mend"
       orient="auto"
       refY="0"
       refX="0"
       id="Arrow1Mend-3-3-8-2-7-3"
       style="overflow:visible"
       inkscape:isstock="true">
      <path
         inkscape:connector-curvature="0"
         id="path5274-6-5-7-3-6-5"
         d="M 0,0 5,-5 -12.5,0 5,5 0,0 Z"
         style="fill:#ff0000;fill-opacity:1;fill-rule:evenodd;stroke:#ff0000;stroke-width:1pt;stroke-opacity:1"
         transform="matrix(-0.4,0,0,-0.4,-4,0)" />
    </marker>
    <marker
       inkscape:stockid="Arrow1Mend"
       orient="auto"
       refY="0"
       refX="0"
       id="Arrow1Mend-3-3-3-6"
       style="overflow:visible"
       inkscape:isstock="true">
      <path
         inkscape:connector-curvature="0"
         id="path5274-6-5-67-7"
         d="M 0,0 5,-5 -12.5,0 5,5 0,0 Z"
         style="fill:#ff0000;fill-opacity:1;fill-rule:evenodd;stroke:#ff0000;stroke-width:1pt;stroke-opacity:1"
         transform="matrix(-0.4,0,0,-0.4,-4,0)" />
    </marker>
  </defs>
  <sodipodi:namedview
     id="base"
     pagecolor="#ffffff"
     bordercolor="#ffffff"
     borderopacity="0.0"
     inkscape:pageopacity="0.0"
     inkscape:pageshadow="0"
     inkscape:zoom="0.78"
     inkscape:cx="-706.54164"
     inkscape:cy="440.764"
     inkscape:document-units="px"
     inkscape:current-layer="layer1"
     showgrid="false"
     inkscape:window-width="1920"
     inkscape:window-height="995"
     inkscape:window-x="0"
     inkscape:window-y="0"
     inkscape:window-maximized="1" />
  <metadata
     id="metadata4705">
    <rdf:RDF>
      <cc:Work
         rdf:about="">
        <dc:format>image/svg+xml</dc:format>
        <dc:type
           rdf:resource="http://purl.org/dc/dcmitype/StillImage" />
        <dc:title />
      </cc:Work>
    </rdf:RDF>
  </metadata>
  <g
     inkscape:label="Layer 1"
     inkscape:groupmode="layer"
     id="layer1">
    <image
       y="376.64188"
       x="-649.44067"
       id="image5840"
       xlink:href="data:image/png;base64,iVBORw0KGgoAAAANSUhEUgAAAg4AAAFtCAYAAABvM+JQAAAABHNCSVQICAgIfAhkiAAAIABJREFU eJzs3Xd8FGX+B/DPzGxJgYQWOlZQmgKKeopgQyDys6GiYjkrnl0PjgjnqXd6IqAegqdnu7Mggiic ngIi2CiilNCULjUE0utmy8w8vz82bHaT3c0mu5udST7v14sX2ZnZZ54pO/Odp41UWOYQICIiIoqA JdQMl0fD19kHsSz7ILbuL8Sx4ipUuT1NmTciIiKKs2SbFZ3aJuOMk9pjxKATcPmgE2C3KiGXl4KV OCxZvx9TP96AQwXlcc0sERERGUuPDq0xeezZyBx8UtD5AYGDpgtM/Xg93ln2S1Plj4iIiAzo7hH9 MHnsYCiyFDBd9v/AoIGIiIgA4J1lv+CFj9fXme4LHJas38+ggYiIiHzeXvYLlqzfHzBNBrwNIZ+f XzeqICIiopZt6scb4FZ132cZAL7OPojDhRUJyxQREREZ06GCcizbeMD3WQaAZdkHE5YhIiIiMrav sw/5/pYBYOv+woRlhoiIiIzNP06QAeBYcVXCMkNERETGdqzE4ftbBsARIYmIiCgkh6smTpDDLBcT pQvuj/cqiIiIqImEfFdFvD0w+kzcM7I/AODtr7bhtS+3JCorREREFKGEBA4v3j0U947qj0ff+B4/ bs/FPx+4BKd0TsfEd1YmIjtEREQUobhXVdT2+8v64N5R/bFyWw5692iLnTnFuOpv/8OF/bri9kv7 NHV2iIiIqAGaNHAYdGoG/nbb+dB0gZf/m43zTusMwNvo4tYZX+HpW87DoFMzmjJLESldcD9O69Ym 0dkgIiJKuCarqujaLhVz/zQK/172C0aefSJ+2nkUfXq0g0WRoWo69uSW4LE3f8DcP43CpZMXIre4 Mmg6pQvuR5VbhRACpQ43Vv9yBE9/uBaHC5pm5MuxQ3vhuy2HkVfKLqxERNTyNEmJQ4rdinlZmXhn 2a84mF+OTb/lo9LpweHCioAn+eXZB6ELYP4TmUixW0Omd/mfF6HLrW/jkqxPkWSz4J1HL2+KzYBV kfGXm89Dm1b2JlkfERGR0TRJ4PD+hBHYdaQELy7cgIGnZCB7bz4AYPNv+Rhwck3VxPhR/bHpt3y4 VR0fTByBtvXcoHOLK/HhtzvQ/8T2vmmtkq14f8IIHPngHnz+1JXo1CbFN+/WS3pj55u/x/7/3IWX 7x3mm167KuK0bm2CdiP9KCsTJ2S0xrysK/Dt1OvCpklERNQcNUlVxeWDTsDKbTmYPPYcXDqgB5Js FnRIS0bndqm47dLeOKlTGgDgtkt7Y9UvR/DTrqP4Q+YZWP/KzVi64QAefO3boOl2bpuC2y/rgxWb a9618cQN50CWZZx813/w3O0X4Nnbzsf42SsAAFPvGILfv7wMP27PRc+uDW+zcP3zX6J0wf24adpi 7MopiUmaREREZtIkJQ4uj4YL+nZFm1Q72rdOwv5jZQCAPUdK0KtbWwDeIMBuVbDvWBmcbhVVbhUA IETd9L7++7XImzseO9/8PbbsL8D4WSt8864672R8sGI7XB4Ni9bswcVndvfNyy2uxFXnnQJIwNb9 BTHZtnikSUREZFRNEjj8sC0HiiyhdYoVS9bvx9SP12Hqx+vw5/fXINVuwfRP1mPdrmP4ZvNhTP14 HTLSU/DTzqMY/OhHeOj1uqUNl/95ETqOexMrt+Ugt6gSTo/mm9epbSremzACuXPuwad/Ho1WSTVt JcZNW4pe3dpg0+xbcIlfQFGbLEkRb1ukaRIRETUHTRI43P7SMmz+LR83XHgaXv5vtm96RZUHOYWV OL17W5x7emes3ZGLx64ZhIEnd8CtL36F4gpX2HRfWLAeWTcMRrKtpsYlr8SBG19Ygi63vo0ut76N rre97Zu3J7cEo5/+DK8v3oLXH7rUN13VdFgVxfe5a/tWEW9bqDSJiIiaoyYJHBwuD258YQkKSh04 pbo9w3HZe/Mw6JSOOKdXJ3Rum4rxo/rjxheWoMql1pvuql+P4LfcUowf1d837bO1v+GB0WeiQ1oy 2rdOwvm9uwDw9uw4u2dHAMC+o2UBpQq7ckowdmgvKLKEjunJmHDtWSHXmVdahZ5d2sCiyGHTJCIi ao6abByH3OJKjJuxFAsmj8b2Q8XYk+ttXPjTzqMYefYJ6N2jLTq1TcF1f/8i5BgOwUz7ZAPe++MI /Gf5ryhzuPH8/HV46Z6hyJ49DgAw+3+b8OOOXCiyhH/cOwyndmmDogonJrz1gy+NR9/4DjPHX4Tx mf1xtNiBp+asxe96dw66vhmfrMdbjwyHw63irIfnhkyTiIioOZIKyxzi5LvejdsKShfcj/QbXvd9 /v1lfXD/6DNx6eSFcLg8OKlTGjbNvgWSBDz8+nd4/5vtccsLERERNc6+f98BIAHvqnhvxXas+uUI Pn/qSpzerS06piejuMKJt5ZuY9BARERkcAl5O+bEd1bigdFn4qOsTADAjE838LXaREREJpCQwAEA XvtyC4MFIiIik4l7VYV/+wYiIiIytyZv40BERETmxcCBiIiIIsbAgYiIiCLGwIGIiIgixsCBiIiI IsbAgYiIiCLGwIGIiIgixsCBiIiIIsbAgYiIiCLGwIGIiIgiJhWWOUSiM0FERETm4HvJla7rOHr4 IFwuZyLzQ0RERAaRlJSETt1OgCzXVFD4AoejOQfRtUsntGvXLiGZIyIiImMpKCzCsSOH0KX7ib5p vhDC5XQyaCAiIiKfDu3bwVlVFTCNjSOJiIgoYgwciIiIKGIMHIiIiChiDByIiIgoYgwciIiIKGIM HIiIiChiDByIiIgoYgwciIiIKGIMHIiIiChiDByIiIgoYgwciIiIKGIMHIiIiChiDByIiIgoYgwc iIiIKGIMHIiIiChiDByIiIgoYgwciIiIKGIMHIiIiChiDByIiIgoYgwciIiIKGIMHIiIiChiDByI iIgoYgwciIiIKGIMHIiIiChiDByIiIgoYgwciIiIKGIMHIiIiChiDByIiIgoYgwciIiIKGIMHIiI iChiDByIiIgoYgwciIiIKGIMHIiIiChiDByIiIgoYgwciIiIKGIMHIiIiChiDByIiIgoYgwciIiI KGIMHIiIiChiDByIiIgoYgwciIiIKGIMHIiIiChiDByIiIgoYgwciIiIKGIMHJrIJZdcjoMHDyU6 G4ZxySWXo6KiImbpff75F7juuhvx8MOPxSzNcCoqKnDJJZc3ybqaQks8P/3PwVifj4l2ySWXY8yY sRg7dhyefPJp5OXlJTpLYfn/fqM9Fs3tt2lEDBwa4ewhF0GSpKD/zh5yUaKz1yK9//4czJgxFbNm /cM3Tdd13H77XaisrGxUmtF+P1GGDDsv5Pk5ZNh5ic5es7R27U/weDxxSfuSCweHPJ6XXDg45Pdm znwJ8+bNQXp6Ol5++ZW45C1Wgv1+wzHrb7O5sCQ6A2a0cc0POOk/+4LPu/PkJs4NAUBRURE6duwI SZJ802RZxvvv/7vRaUb7/URZs/JnvPHzdUHn3Xfup02cm+ZP0zS88spsvPXWv2C1WmOe/nerN8Ax t1fQeSnjNoT9rizLuPLKKzBhQlbM8xVLwX6/4Zj1t9lcsMQhwY4dO4Y//vFPuOGGmzFxYhby8/N9 8xYs+AQ33XQrrr/+poAnhlDTi4uL8cQTf8bNN9+KP/zhQezatbve70RqyZKluP32uzB27Djceuvv 8c033/rmXXnltZg7dx5uvPEWXH/9Tfj66xW+eatXr8EDDzyM66+/EaNHX43HH59Y5ykhXL4j2Vcv vvgyhBDIyppS5zv+xZ7h8pmbm4vHH5+IK6+8Fo89NiHo9w8ePITx4x/ADTfcjA8/nBfxNjRmvZHu k3gzy/kZaj+Gy38o4fIZbD3PPz8NR48eQ1bWFPzpT0/Uu97rrrsR8+Z9jDFjxjZ4OxtD03TYbDUB TbC8lZSU4oorrvL9NsvKyjB8+CgcPnwYAOBwODB69NUoKSkNu38as22R/n5rV0FE+tukOCgsc4jC ModYv2GjoMgAECf9Z1/QfwCCfufii4eLAwcO1pk+ZcqT4tNPFwkhhFiw4FPx1FN/9c3LzLxSHDp0 SOi6Lo4cya13+t/+9nfx/fc/CCGE2LgxW9x99/h6vxOpw4dzRElJiRBCiL1794prrrkuYNvmzJkr hBBi3br14rrrxvrmXXfdjeLQoUPi4MGDYuzYmwO+U15eXm++/YXbV/7p+fOfHi6fkyZNFu+994HQ dV0UFxcH/f7EiVnik08WCiGE+PTTheLii4f7lgu3DY1Zb6T7JBgA4o2frwv6r7men6H2Y6TnTKTn YyTnSX3rveSSy8WHH34kNE2LaNsACMfcXkH/1Xc8PR6P+Pvfp4oZM16qN29TpvxFLFnylRBCiC+/ XCyysqaIefM+FkIIsXjxUvHkk0/Xu38aum3++Q12LPz/Li8vD/jNRfrbpOit37BRHI8VCsscgiUO CbZlyzYMG3YhAODii4chO3uTb97o0Zn4y1/+ihUrvkGnTh3rnb5+/QbMmvVP3HDDzXj++WkoL6+o 9zvHXXbZSN+/YCoqKvDcc1Mxduw4ZGX9GSUlpQHzR470PgmcfvrpKCws8k13u12oqqqC0+mC0+kK mna4fEe6ryIVKp+bN2/BqFEjIUkS2rRpE/S7v/663bf+oUMvbNA2NHS9ke6TeDPL+RlqPzbmnAmX z0jOk/rWK4TA5ZdfBlmO7+X3sccm4Prrb4IQwAMP/KHevI0aNRIrVnwDAPj++5UYP/5urF37EwBg +fIVGDVqBIDw+yfUttV3/KIV7rdJscc2DgnmX6cnvA8Xvs8PPng/9uzZizfffBvffvsd/v73Z8NO F0Jg5syX0L17tzrrCfWd41as+CpsPv/61+dwyy03IzNzJEpKSnDddTcGzE9KSqrensDv3XffeDz4 4KNo06YNHnjgvqBph8u3v3D7KlKh8mm1WutMC5cHRVECpte3DQ1db6T7JN7Mcn6G2o+NOWfC5bOh 50mo9SYnJ9efSJRmznwJJ5zQo870UHk7//zzMHPmLOTm5qKy0oFTTjkFuq7j8OHD2L//AM4771zf d8Kdm8G2rb7jF46o3nUOR1XY5UL9Nin2WOKQYAMHDsAPP6wE4I3yzzjjDACAy+VCTs4R9Ox5Ku6/ /z5s2bIt7HQAGDz4bHz66UJomgZN03DgwIF6vxOpiooK9OrVE7Is48svl0T8vdGjM9G2bRvMnfs+ Ro4cEXSZUPmuLdS+ioW+fftg+XLv01aoevA+fXpj9eo1AIA1a34MmBfpNkS63samF2tmOT9D7cfG nDPh9n2o9aSkpCA392hU620qofJmsVhw8cUX4Z133sWQIecDAM4771z8+9/v4dJLL4bF4n3ObMpz s23btti5cycA4Ouvl4dcLtxvk2KPJQ6NcNYFw0L2njjrgmEhv/fYYxN80fCgQQMwZcoTePjhB/DC CzPw0Ucfo0eP7sjKmgjA21L7qaeeQVlZOaxWC+6/f3zY6QDwyCMP4eWXZ2LMmLEQQsfVV1+Fu+++ M+x3IjV+/N2YODELrVql4uqrr0KnTp0i+p7L5UJ6ejquuOIqSJKEG264Dvfcc1fAMqHyXVuofRUL jzzyEKZOnYY5c+bi9NNPw8svzwi6/meffR5z587D6NFXIDU1tcHbEOl6G5seAFww9NyQvScuGHpu yO+Z+fwMtR8bc86E2/eh1nPTTWMxcWIWUlKS8dFHc2J6rl485OyQvScuHnJ2g9MLl7fMzJG4774H cMcdtwMALrjgd3jnnf/gzTdf9y0TzbnZUPfddw9eeGE6FMWCa6+9KuA3V3ubQv02KfakwjKHAIB9 u3fg7LMGJTo/1Mw88sjjuO++e9GvX1/k5BzBPffchyVL/pfobBERUYQ2bMzGyb16+z6zqoLiat++ /ejc2Vs6UVJSErThGxERmQerKiiuHnjgPmRlTfEVHT7xxJ8SnCMiIooGAweKq8zMUcjMHJXobBAR UYywqoKIiIgixsCBiIiIIsbAgYiIiCLGwIGIiIgixsCBiIiIIsbAgYiIiCLGwIGIiIgixsCBiIiI IsbAgYiIiCLGwIGIiIgixsCBiIiIItai3lXhdDoxZ85czJv3MRYv/hw2m803b8SIKwKWVVUV33yz DACwcOEiLFr0OSoqypGR0RGPP/4I+vTpjdoKCgrw3HNTcfDgIfTv3w+TJ09CcnJyfDeKiIioCbWo EodZs17FhRcOga7rdeYtW7bY9+/ZZ5/BgAFn+ualpaVh+vSpWLToE9x881hMm/Zi0PRfe+0NnHvu Ofjkk3lIT0/DBx98GLdtISIiSoQWFThMmjQRvXufDiFE2OW++GIxMjNH+j4PH34ZunTpDAAYOHAA 8vPzg34vOzsbo0aNgCzLuOmmG/H99ytjl3kiIiIDaFGBQySKioqwefMWXHTRsDrzCguL8Oabb2P0 6Myg33W53L7qj7Zt2yAvLy+ueSUiImpqLaqNQySWLPkKF100FHa7PWD6mDFjUV5ejr59++Cpp+4K +t3TTuuFNWvWYsSI4fjii8WQZW9cVlBQUKeUQlEUtn8gIjI5u92Ojh07JjobTYqBgx8hBBYvXoop U7LqzFu48GNomob58xfgySefxuuvv1pnmUceeRDPPz8NH3wwB+eddy7atm0LAOjQoQM6dOjgWy4n JwdCCHTv3j1+G0MB8vLykJ6eXicgpPg5dOgQevTokehstBgulwulpaUt7iaWSGVlZfVWfTdHDBz8 ZGdvgsWioF+/vkHnK4qC0aMz8f77c4LOP+WUU/D2228AANav34CCgsK45ZWIiCgR2MbBT+1Gkcdl Z2/yRZVLlixF3759AAArV65CZuaVWLlydcDy5eXlePfd93HttVfHP9NERERNiCUO1UpLS7FmzY94 6KH768ybO3cennnmWVitFvTs2ROTJk0E4K3a8O/auWrVarz11juw2+248caxAV06iYiImgOpsMwh AGDf7h04+6xBic5Pi8A2Dk2PbRyaHts4NC22cWh6x9s4pKenJzorcbVhYzZO7lUz6CGrKoiIiChi DByIKKyqj05D1UenQbiKEp0VIjIABg5EFBlRd6h2Imp5GDgQUWi66vdBSlg2iMg4GDgQUWias+Zv ljgQERg4EFEYwj9wAAMHImLgQEThaK6av4WWuHwQkWEwcCCi0PxLHHSWOBARAwciCoNVFURUGwMH IgpN9a+qYOBARAwciCicgF4VbONARAwciCgM/6oKwRIHIgIDByIKR2NVBREFYuBARKGxOyYR1cLA gYhCEhw5kohqYeBARKExcCCiWhg4EFForKogoloYOBBRSIFVFSJxGSEiw2DgQEShqRzHgYgCMXAg otA4ABQR1cLAgYhCEv5tHMCqCiJi4EBE4bDEgYhqYeBARKFxyGkiqoWBAxGFxiGniagWBg5EFJJg VQUR1cLAgYhCY4kDEdViSXQGmpLT6cScOXMxb97HWLz4c9hsNt+85ctX4MMP56GoqAjdunXFhAmP 49RTTwEA7NixAzNnzkZ+fgEyMjrgscceRu/eveukv3DhIixa9DkqKsqRkdERjz/+CPr0qbsckWlw yGkiqqVFlTjMmvUqLrxwCHS97gWwpKQUU6Zk4bPPPsXVV1+JGTNe8s17/vnpuP32W/Hpp/Nxyy3j MHXq9KDpp6WlYfr0qVi06BPcfPNYTJv2Yty2hagpCA45TUS1tKjAYdKkiejd+3SIIEPnXn/9GPTq 1RMAcP75v8OBAwd98woLC30lB/369UFhYVHQ9IcPvwxdunQGAAwcOAD5+fmx3gSipqWyxIGIArWo qopIbd++wxdEAEBm5kjMmvUqxo+/F2+++RauvfbqsN8vLCzC22+/g9GjMwF4q0hcrponN7fbDQCo rKyMQ+4pGE3T4HQ6oapqorNiKrJa5fvb5XRANPCcbTnnuACchQB0ICkDgNTkOVBVFZqmtaB9nnhu txuKoiQ6G02OgUMtLpcLb7zxFh5++EHftFtvHYc777wXDz74CNLT0/HEE5NCfn/MmLEoLy9H3759 8NRTdwEAPB5PwI9ZVVVIkhQQTFB8CSHgdruhaSxub4gkzeW7BaoeD9QGnrMt5RyXXAVI+u7/AADO iz6DSOrU5HnQNA1CiBazz41A0zRIUtMHiYnGwMGPEALPPTcVQ4ZcgEGDBvqmv/jiPzBmzDUYN+4m zJw5Cy+/PBOTJ2cFTWPhwo+haRrmz1+AJ598Gq+//ipat26N1q1b+5bJycmBEALt2rWL+zaRV15e HtLS0mC32xOdFRMRqNJrbkKpKUlQGnDOVlZWNuwcF5q3F4clpSGZNATtyBa4q/9O0w5Caden/u8c XALP1lcAocF27t8hdzw3qjy4XC6UlpbyutKEysrKglZ9N3cMHPzMmvUqkpOTcNdddwRMX79+A7Ky JkJRFNx9910YN+42TJ4cOh1FUTB6dCbef39OfDNMFE+aO+BjPEeO1A78D+41EwDZAvvI/0Juc1rw BXUVwpEL4SwEhAbhzIeoOAThqYAk2wDFDlhTISV1gHbgC0B1APZ21e0zJEjWFAjHMUD3AIoN1gF/ gpR2ctT5F0W/1GSxcDOUHiPDf0H3wL02y9drxbPhOdgzP0MiqjiIGoqBQ7U5c+bi8OEcTJ36XJ2i p44dO2Lr1m244ILzkZ2dje7duwEAVq5cheefn4YpU57A0KFDkJ29CQMHDoAkSViyZCn69q3/qYPI qAIGfwIa3DjS4jiAqo8uAwAk37wT4W6K6p553j90Fa4l/we58wVQugwDZBske1tAeKDnrYN2aBmE u7RB+QhHVObCPmpR1Onoxb/W/F24JbLl/favXrID2sGlUE7IjDovRPFmmsBh9+49WL58BbZu3Yac nCNwOBxITk5G165d0K9fP4wYMRynnx7iKSUC77zzH1itVlxxxVW+aVOmPIGLLx6GrKwJmDlzNl56 aSYyMjogK+tPALxVG/5dO+fOnYdnnnkWVqsFPXv2xKRJExu/wUSJptWqK29gd0ylYnfNVytyILXq HnQ54cyHnrc+YJp+dA30o2satL7GEJ7ymKQTEDgUbfXuKyl0ozk9f0Odae7Vj0Le8Q7ktv0ASYbc rj+UE/8PwlUEydoasLaKSV6JomWKwOGvf30O3333PTp16oQzzuiP3/3uPCQnJ8PhcODw4RysWbMG CxcuwsUXD8PTT/+l3vS+/fbriKYd169fP7z11r/qTB82bCiGDRvq+zxjxgsRbhGRCURZ4qA49vn+ 1vPXQwkROGgHv0LCXtkdg7EphLsUojKnZoJaBb10b+jqFnj3R9DphVsCSyx+qqkTlTPOgvXMCZBS OkNoVZCsrSAldwoboBDFgykCh6KiIsyePRP9+/cLucwvv/zKNgVEMVSnqgINCxyslb/5/tby10E5 +Zo6y+jF2+HZ8LfGZC82YhE4FG+vM03PX1cdOAjoeesgqvIhdx4Cyd7GOy1IiUN99PyNcK24JXCi pEBOPxWW0+8EumYCOrsbU/yZInDYsmUrpk9/CYMHn4XBg8/GwIEDkJIS2PK6X7++mDbt+QTlkKgZ qtU4ssFVFZV7fX/reevqJp/zLdyrH21U1mJGj0Hg4Kw70Jue9zPQ6xZ4Nr4Aded/AABSajfYRy6E KN8H4SqOer3elWvQS3bB/dNkAJPRSk6COuBRWE6/I64lEcJxFNDdkFK6ALI1bushYzJF4PDwww9i 48ZsLFu2HIsWfQZFUdCnT28MHnw2Bg8+C717926Rg3AQxVUUVRXCVQzZXVjzuXw/RNUxb9E6AG3f IrjXPoGEVVH4MhaDcT2CBB/60TUQjqNQd9eUgorKHLhX3AYppXP066xDAiAg6U54sqcBshWW026P w3oACA3Oz4YBAGxDX4PSfXh81kOGZYrAYcyYazBmzDXQdR27du3Chg3Z2L59B5Yu/QrvvfcBkpOT 8eWXnyU6m0SmJzzl3pt8+UG4f5pSa2YDAoeSHXWm6Ud+gHLqDdAOL69+QjZA//dYBA6ibvWAcJfC vephb7dPP3rpLqB0V/TrrLvGwPUEqT6JFb3Ur9FryQ6AgUOLY4rA4ThZlpGamor09DS0bt0K6enp KCoqRlpa6/q/TER+BKBWQTiL4Nk2C3rRNoiKw3VLGQK+EnngoJfsrDNNO7QUyglXwPPzk4Z574WI RRuHENuiF26OOu1Gi0EVTMikCzb5/Z0dt/WQcZkicPjvfz/H5s1bsHnzFhQXFyM5ORkDBw7AyJEj cM45Z6N79+CttYkIAIR3wCRPJaTUrlD3zIe256OAJ8fIkmnAzShIN0ft6Bp4trwM4Qr+kriEiMUN 1ogNEoOUgsSKf0CkF2zyBoFSi3pfYotnisDhlVdmQ1EUnHFGf9xxx+0YMWI4kpKSEp0tImPRnFD3 /w9wFQGyFXrxdoiyvdBL94QvSYhUQ6oqgt2QhQZ11wfR5yOWYnGDNeLrxuOYJ/8SB+Eph162F3J6 r7itj4zHFIHDo48+jM2bN2Pz5q34xz9ewb/+9SYGDhyAc84ZjHPOGewbyZGo5RJwr82CdnBJ/NbQ kOqFoDcubwM+Q4lFlUkcn+4bLU6Bg3CXQZTtDZim561j4NDCmCJwuOaaq3DNNd4RHQ8ePITNmzfj 11+3Y8mSr/Cvf72J9u3bYe5cgz3JEMWUQPghmz+Oa9DgzUIDbkZBi+8NFjQA1dsUft/Wn4Yx2msE iFMbB1FxsO6qCjYCvcY1LCHdDS3nG0DXoHS/FFCSY5RDagqmCByOE0KgqqoK5eUVqKioREVFOTwe D0pLyxKdNaK4EI5cuH+4H3rxr7CP+gxy27rvPxFlv8Gz8e9NkJloSxwMSujRjXnQkto41OolAgD6 sZ9wPPgSVfmAYodkSwuXObi+H+8bUlzuMAj24XM5AqaJmCJw+Oyz/2HDho3YtGkTyssroCgKevfu jREjLsfgwWejT5/eic4iUVzoR9f43oPgWnELkq78pnr0QS/hKoLr67GqBtMPAAAgAElEQVSxacNQ nwYFDga8mYZSz3slIvq+wQRtYxILQYIkUXUMovwgtGNr4Fn3NABA7jwEtvOmBh2zQs/7OeA9JHpB NlzLb4Ft6KveF5oxgDA8UwQOM2fOQvfu3XHZZZdi8OCzMWjQwDojRxI1R3rRtpoPngrox9ZAOeEK AN5iY9eK2yHcTVTi1pAbpBGL70OJ9sZvwMAhboFbiG3VcpZD/eV132f96Gq4ll4F26UfQG5zun8C 8Gx+qc739YKNcC66AAAgJWdA7jIM1rOmeF/uRYZjisBh/vy56NgxA4C3uqL2a6/dbjdsNlsiskYU V7Vf0azn/ewLHDzb/gnhONJ0mRENaKNgxOL7UHQNiKbAIY5jJjRavAK3EAGJJ3ta3UVdJXAtuRKW vuOhnHQ15PRe0PZ+EtArI+gqqvKh/fYp9Pz1sA99HVJ6z5hknWLHFJ1vjwcNAPDGG28FzCsrK8Mf //inps4SUUwIZwH04l+Cz9Q90GuNwKgd+8n7h6cS2sGlcc5dLQ14so7FwEpNJeq8GnFb41Ti0Jgg Sf31TbgWj4Zz8RVw//znyNdVfgDOZddD3bsAhmxY24KZosTB3/z5C5CWloZx425Cbm4uJk2ajKNH jyU6W0QRE45cqNtehZa70vuyIADWARNg6XtfwHJ6yc46jdFE2V5vsJHzLaBVNVmevStvSK8KA95M Q4n2xm/E0pV47f8oAhJRuqfhX1Id8Pz8Z3h+/jPkzkMgtz4RSvfhkDsPQVQ9YSgqpgscHnroAfzz n6+joqICS5Z8BSEEXnyxbjEZkTEIiLL9ELrH2wXtwJdQd39YpzGjlruqbuBQtDVoitreBVB3vhe3 HIfUXBtHRnuTNWJ7jniVgiQwINSProZ+dDXU3XMhteoOS8+boZw6FpItPWF5aqlMFzhcd9210HUN r732Btq3b4/Zs2eiS5d4vG2OqPGEsxDavoVQf/sEomxfBF+o281NlO8Puqhnyz+izF1jNdfumNEG DgYMkuK1/w2yraLiMDybZsCzaQYke1tIyRlQemRC6TESUvqpYGlEfJkicHjzzbcDPlutVvTr1xc7 d+7CZ599DlmWMX78PQnKHbV4QoN2dDUkSYHU+iSoO9+Fumd+w7pIBnuSM1gReINGjjRY3sNqjm0c 4lZVYbxtFa5iCFcx9JJd8Gx9BVLrk2A94xEoJ/5forPWbJkicPjoo/kh582fvwAAGDhQ09CqoOWu htSqB+Q2p0E/9hPca7MgHLnRpRvsgmy0m2+DumMa7wYTUjMMHETcBoAy3rbWJsr3w71mApI6XwDJ 3g4A4F7zR2gHvoCc3gv2K75McA7NzxSBw+DBZ+OOO25Hv359Qy7zyy+/4r33PsD06VObMGfUkojy /XCvfLDhb5WMRJAR+YxSLOzTXEeOjPJmaMzumM27qqJ+AnCXAdWBg57n7Y3k/e1GOcQ4mSNwaNWq FR566FF07doV/fv3Q/fu3ZCSkoKqqiocPpyDLVu2IDf3KIYNG5rorFJzpXvg+uG+yNorNEKwLoHC cCUOUb4d06CEUKO7jRjxZhqnc8dMxzUgeJJrxvnRi7dDbhv6IZTqZ4rA4emnn8S4cTfiq6++xpYt 27BmzY9wOBxISkpCly6dce6552LUqMvRuzeHnqb4UHe+G7egAUDwC73RntobVFVhwJtpKNH2ijDi zbSJB4AyIqFXB4RaFURlzUBp+pHvILft4+3htOcjyG37wjroCQ513QCmCBwAoFevXujVi69upaYn Kg7Bs+nFOK8kyAXZcCUODRiEx2hBTzjR3gyNuK1NPOS0IVXvA71sH/wHkFJ3fwhY0+DZ8Dfv/Lx1 gOaE9Zy/gVUYkTFN4ECUELoK95o/Iu4j1wV7ajXa012zHQAqyqdzI95M4/aSKwNuayjVgXftgadE Vb4vaDhO3TMfUJKgnHildyRXVymUHiMgpZ3SZNk1EwYORCEJuNdmQS/cHP9VBStdMNpFurlWVURb smPEwKHFN46E77jqZZGMWClB3flewMBqni0vw9LzRljP/ktAGwli4OCzY8cOzJw5G/n5BcjI6IDH HnvY12Zi+fIV+PDDeSgqKkK3bl0xYcLjOPXUupFouDTIDAS03JXed0C4iqHlrQU8lfAWX8a5xCFo VUWQnhaJ1KCXXBnwZhpKMyxxaMndMX1E8BKHEAsHnarumQ8t72fYBv8VSGoPOaUrYE2NYSbNiYFD teefn44//OFeXHDB+Vi5cjWmTp2O9977NwCgpKQUU6ZkoVevnvjqq2WYMeMl/Otf/2xQGmRUAnrB Jmg5K6Dt+wyiKth7T5rgBTvBelUY7YbUXEscos2rEW+mOhtH+qoqKg5GlYwo2wfXN7dXf5Igd74A tvNnQErqEGUGzcsUb8f0N3z4KPzlL8/EPN3CwkL06eMtHejXrw8KC4t8866/fgx69fK+2vX883+H AweCn4jh0qDEktzFEGW7of22ENr+z3w3Qc/W2XB9fSPUX98METQ0DRGsdMFwjSMbMo6DAd/fEEq0 4zgY8WYar7djGi2YDeN4d2ahuWOZKvSjq+FcdAG0A18CeizTNg/TlTiccsopOHr0aMzTzcwciVmz XsX48ffizTffwrXXXh10ue3bd/iCiMamQXGiuaD+9in0vJ8hpXSGlNoNovIwtMPL0ariEASA4z9z S/lBKF0vgvrLa4nMcQ0TNI5syJDThryZhhD1zdCIJQ5xe8mVeY6r7/cTpyo/95rHYZUtcI/6MS7p G5npAodrr70aL730D0yZ8hecdNKJvunRDjl9663jcOed9+LBBx9Beno6nnhiUp1lXC4X3njjLTz8 8IMNSqO0tBQlJSW+5ZxOJxRFQV5eXlR5bvGEBqgOWEo2wb7nNciOQxF/1ZWzEjjwNRSjPBkLrc75 kOKqgpF6lrtdVSiN8JxN9bhNU5xZUlwITWn8bzHF7TTUcQIACB15x44CUmyPgr2yHGZpJlhaXAjV modWqjt+nSx1FR6PwdoiNQHTBQ7Tp3v70//441r8+ONa3/RoA4cXX/wHxoy5BuPG3YSZM2fh5Zdn YvLkLN98IQSee24qhgy5AIMGDWxQGikpKbBarb7l8vPzAQDp6XwdbGQEUHUUsLUFnAUQJb8CRZsh Dn4JuAoblaJSvCnGeYyS0JCengb/fuRCkZqidUXELFpJxOesLhkp5+GlpiRBiuK3qBs0QkpPaw3I sb3EC6vFUOdkOClJNkjp6dAR3xIhRTFc2Bh3pgscvv3267iku379BmRlTYSiKLj77rswbtxtmDy5 Zv6sWa8iOTkJd911R4PTsFqtAYGDxWKBEAJ2uz0u22JmetFWaAeXQpTvg3CXAZIM/dja+r/YDNit loALvUuoxrpIa1URn7NOoRkr72FYFRlKFL9FF/SGvHC8ydhtFkCJ7TXGIwuYpbLCapGg2O1xPxdl 2aCRYxyZbou3bNmK3//+Llx11bUAgPfe+wCPPPJ41Ol27NgRW7duAwBkZ2eje/duvnlz5szF4cM5 mDRpIiSp5olw5cpVyMy8EitXrq43DapNQJTvR02PBQHPhufg+up6qNvfgnZ4OfS8n+sGDc15YLda 7QIM1xCt2Y4c2fzejgkgPvky6rYGc7xxpNG6NTcDpitxePnlV3DiiSf6eiwMHDgg7Gu3I5WVNQEz Z87GSy/NREZGB2Rl/ck37513/gOr1YorrrjKN23KlCcgyxJ0v25P4dIgABAQZfugHV0NdfcciLJ9 kNsPgP3y+VD3zoe66/1Ikmi+dBUBleVGa4jWkNbpJmoc2VwDB9+7GmLJaOdkGL7Am4FDzJkucDh6 9CimTMnCxo3ZAICCggLYbNE31+nXrx/eeutfQeeFqx7xfyNnuDRaJgG9cAu0/Z9BO7QMoqpuAzS9 cDPU3XPg2fRSAvJnLEJogRd6o918dVcDljXmzTSoKPez4UqGjotDvgy7rcEcDxhMFOyYhekCh759 +2DGjJfgdrsxbdoMfPfdDxgy5IJEZ4uqicociKp86AXZUHe9D1GZU+93PBuea4KcmUDtC5zBbr6i AX3WzXWDifbtmAa9McXjGBjsnAxLV6v3QXMupkwM0wUOTzwxCbNn/xPHjuVhzZq1GDLkfDzySPDu kRRfeskuaLveg5a3zjt4klqV6CyZW+0nX4PdkKQGVVWY5wYTdZBjlC69tcWljYOxzsmwhGa431Bz YbrAwWJR8OyzzyQ6Gy2brsLzy2tQt72a6Jw0L7Uvcma6SNdmpgt2M23jEJdjYNRtDUb3mOs8NBHT BQ7XX38TzjzzDFx88UUYOvRCtG/fLtFZahl0N7Scb6Du+hB63k+Jzk3zVKeqwqwXPWGuG0zUI0ca 9DjFparCoNsajK6aagRTMzFd4HDLLTdj3br1mDXrVcya9SrOOKM/LrpoGMaMuSbRWWs+hA69YCO0 3FUQxb9ArzgMUbY30blq/mpd6E170TNq0X0ozbbEoWV3xxRCY4+KODFd4HD33Xfi7rvvREFBAf77 38+xatVqzJ79TwYO0Th+MZAUiKpjcK96FHrBxsTmqQUSolb3OTM93fkz0c0FQPQ3WKNub4svcWBV RbyYLnBYu/YnfPvtd1i1ag1cLhfOO+9cPPTQA4nOlumIyhxoh7+GduQ76AXZkKytYPvddLh/mgzh iP1LxCgCddo4GPSGVB8ztbwHom9LYtDjVKd7b4zSNA2WOMSN6QKHyZOfRNeuXXHHHbchM3MUWrVq legsmYJwl0I/9hP0Y2ugHV1TPWqj33y1Cq5v70xM5sjL/6IsdPMV+VczXRVLlPtZGPWpNh7Hwajb Goyumiu/JmK6wGHGjBfw9dcr8O67H+Ctt/6NCy8cguuvH4O+ffskOmuGIhy5UHfPhSjdBeEshF60 zbQ3ohbD/yJnpie72sx2nkV7czHq9saljYOJbsS6B0KwxCEeTBc4DB58NgYPPht5eflYtOgz/Pjj j3jwwUfi9vIrMxGOXGi/fQItfyP0o6sbkYIEDpaSQAGBg4ku0LWZ7ClPRHvjN+qxike+zBTQchyH uDFd4PDGG29hw4aN2LPH28r/9NNPx333RfdK7USw534O56ZFsJ75OJQTrogqLVFxEJ5f/gVt36Io f9gMGhLK79gZtvg7Ema6uQDR32CN2qYjHiUhJjovBasq4sZ0gcP8+QvQv38/PPDAHzBs2FB07JiR 6Cw1Sqs9MyEAeDb8vVGBg166C/qhr6EdWgq9ZGfsM0hNz/8GZtSbUSSM+gQeSjSBjtBh2IC7xQ8A xcAhXkwXOHzyyTy0a2f+QZ+EZIEkVAhnfgQLaxDOAoiKQ9ByV0E7uLhW40ZWMTQHAaUMZq6bNVvQ E01+jdq+AeC7KoRq7t+RgZkucLDb7Zgx42X8+ONaCCFw/vm/w4MP/gGpqamJzlqD6Mk9oDj2AQCE 4wiklK51F/JUQN23COqOf9fzsigGDc2C3lxKHEyW96hKHIz7RBuPrpOm6jHDEoe4MV3gMHv2a/ju u+9x2WWXQggdy5evAABMmjQhwTlrIL9XFOtH10A55XoAgCjdA+3QEmhHfoBetNXYTzQUW/4XejNf 8MyW92husEYO8Fp6VYVQITiOQ1yYLnD48ce1GDPmGowf720QmZ6ejqVLv0pwrhpO0mreJOn+aQrk 3xZClO6GcJcmMFeUUM2kV4WpBgkCoroZGnpbW3jjSJY4xI/pAgchBCQp1uOhNT3/wAEA9Pz1CcoJ GYZ/sGDkG1J9zJb3qKoqDLytLbw7prdXBUsc4sF0gcO5556DTz9dhJKSUgghsGLFN7j88ssSna0G k3RnorNARqOzO2YiiKgaRxr4OMWjGsXIVTO1CdXYx8fETBc4PProQwCAVatWQ5YlXH75ZXjggT8k OFdE0QtoeGbmC57Zgp5o9rWRb6RxKXEw0bFlVUXcmC5waN26NZ58cnKis0EUewG9Kkx8wTNZiUNU bQGMvK3xaONg5O2tTajmLrkzMFMEDuXlFXjllVn4+ed1sFptGDr0Qjz00P2wWEyRfaLImGEAKKED khx+GbNdrKPJr5FvpHE4Dqa6EbONQ9zUcwUwhnfe+Q9WrPgWVqsNuq7hs88+xwcffJjobBHFln+w YNiBayIYM8TIN9NgonkyN2qAhzj1+DDTsdXZxiFeTBE4fP/99+jXrx8+/nguFiyYh9NO64Xly79J dLaIYssUJQ7158vQXRSDieLmYugBkeIycqSBt7c2obHEIU5METiUlpbhjDP6Q1EUWCwWDBo0EMeO HUt0tohiy++ibNgbUiQ3IzPdXIAo2zgYeIC2mB8HYaoSB6F7zHcumoQpGgkIIfDVV8uwbt06AEBR UTE0TcM999znW+btt99IVPaIYkOYoHGkiKSqwsA302CiauNg0OMExP44mO24CrZxiBdTBA4AUFxc jOLi4oBpe/f+lqDcEMVewHgCBn2yE0JDvcOvGflmGkRUVStGrVICYn8cDHpOhqRr5mrMaSKmCBy+ /fbruK9j4cJFWLToc1RUlCMjoyMef/wR9OnTGwAwYkTga69VVcU33yxrUBpE9QoocTDok1IkT51G vpkG01xHjoz1cTDbcWXjyLgxReDQFNLS0jB9+lR06dIZ3377HaZNexHvvvs2AGDZssW+5X766WfM m/dxg9MgqlfAuyoMepGOJHAw28W6uQYOMT4Ohm13E4rwGDcANzlTNI5sCsOHX4YuXToDAAYOHID8 /Pygy33xxWJkZo6MKg2ioMzwdsyIGkca+GYaTFRVFQY9TohD7xazHVddM/TxMTOWONRSWFiEt99+ B6NHZ9aZV1RUhM2bt9Q7cmXtNHRdh6bV/Oj8/yY6TlfdUFXvhU6o7gTnJjjV44ZkCX8x1jVzPeUJ TfXt9wZ/16DHCfAeh8ZuVzDCY6736whdhd4Ex0dE0mC4mWHg4GfMmLEoLy9H37598NRTd9WZv2TJ V7jooqGw2+0NSqOkpARFRUW+ZWL5Y6bmw1lVAUd1KZWtrBgpCc5PMEWF+dDt4ZtHGjXvoageF4ob WTpoKSlCq0auVwD1NzSNgqOiHM4YlnrK7gKkBUyRENGAYAkidA+qHOUIfbWODY/HXIFyLDBw8LNw 4cfQNA3z5y/Ak08+jddff9U3TwiBxYuXYsqUrAan0a5dO7Rr1863TE5OTty2gcwrOcmO9C5dAABq eSsY5XKkSxLk6qeqjhkdIKV2Cbu8kfIeCatFRpcu4bcpFE1PR2OfaeMZNABAq9QktG3kdgUjKnUE ljkYN2gAAEloSEmyId7luzabLc5rMB62cahFURSMHp2Jffv2B0zPzt4Ei0VBv359G50GUVgBjSON c+v1yErNh4gaRzb+Un0oNQ1qfe/CqEWXvLdgIUnQpJrbsQ6gyJ6CcqsNTsUCl2JBpcWGKsVaK4HY NY7UpYaFA990OQkfn9wXh1LT4FK8+1mr3v7j+6GhadZkJsa3TCM3BA1KALpxq5LMjCUO1bKzN2Hg wAGQJAlLlixF3759AuYHaxS5cuUqPP/8NEyZ8gSGDh1SbxpEYRl0yGmnosCuVectkptHI24wGiQs 634qCpJSoAgdaW4X7LoGWQhYdQ3Jmopyiw0VNjvcsgxNkiCEBE2W69xYJQhYdAGPHDoAsWsqxu77 1ZvdGPWqKLXZ8VvrdhhUmBvRV0tsSTiS0hpCkvBdl5O8eRcCwm97ZHgDIABI87jQyuOGLsk4XtGh CB12TUWq6oEsBM4s8htRN86NI0vsSWjjMni7B60q0Tlolhg4VJs7dx6eeeZZWK0W9OzZE5MmTfTN Ky0txZo1P+Khh+4P+I4QArquR5QGUb38L/SNuOjHus5clySU2pKwoX1nDD+yr3olERRP+5Wc5CWn QBISMpyVQRfVJBm/pbXF1jYZqLTafNOK7cmNzreABI8cfk+oAaUosQkc8pJTsTO9PfqW5MFeqwH0 0eRWaO+qgrX65utULFjV+YSAIAFAnc/+5TtlVjvKrOFr7ItsSbj46IE6eYsF/+6YqiRjTcceuOLQ 7kanV5CUgpzUNPQsLUJqnBoxCtXggY1JMXCoNmPGCyHnpaenY+nSL+pMHzZsKIYNGxpRGkT18u9z 3oj+5xK8N6QDrdJh1XVYhQ5V8j6dq7KMZNUDq66j0mJFuc0Ol6xAk2RUWq1wyQp0SFAg4JEVuGUF qiRBSBKStAaOL+G3TL49Fb+ltcXog7vq1Iv+3KEbfktrE1gV0kT8qzSguRqfkF+Q5JFkeGQZ29p2 xNkF3lKHEnsSvu56CpyKBXZNw4kVxWilerA7rT3KrbGvG/coNfsy5t0x/Y9rcioK7ck4lJqGHpVl AYupkgwZwtcuJpg9ae2wNqMbhCRha9sMtPJ4kKx5oEOCXn3OdXGUo4ujAm08LkiN7bmgMXCIBwYO REbhd2GufdEvtdmR7g59gyuz2rAuoxuOpLSOebZ0v3usEHqDhpyusNpQYkvC5vadMajwKACg1GrH 8m6nwGGxhkqhSQlPaRRfrjlOxwOg7ekdUGRPhqILHEltBVG9x1yKgl3pHaLKa30CgrBYj2Hgl567 ej2b2ndGN0c5ZCHglhV80/Uk5Celwqpp6FVejJPLi9HOVQUBCRIEHBYrNrXvjL2t2/rSEpBQbrXV CaSOn8tWXYdV16BLNVUzSZqGFNWDVNUDXZJg19Tq5XScWFFSk4jKqop4YOBAlABlVjs8soxWqrum WNv/Qu/397HkVvi2y4m4bv8OX1G3vzUde2BfWlvE6xVEIqCsoP61+L9z4/gT8La2HXEoNR0SBMqs 9sY3+Iuh4zczeBxRJFI3cBCShKPJje2kGZ2AhqVxLHFwV7cfKbElYcHJfZDiUVFhs/nW71EU/Nqm A35t4w2U7JqKZE1FqdVepzqmPh5ZDmivUmkJX1IzMseDjlWV1VmuKXHQJQkSEFB6UWJLgirL6OCM 4hxogRg4EDVQbkorCADpbhdkAZTY7ahSrFCEQKrqRqXFhiJ7MiqsNlRYrHArFkjVjfwUIVBkT/Zd CNM9Llx1YCcABL6Qx+/vQnsSPLL3QjygKPB18su7nYLcON+kAor1G1hV4fa7kZXa4t2jvmHcilyn LUJD+QdJapjGmE3F3UQlDv5tRNyyBW57+FuJq7pXS1Pw+AdPfiUO2e27oNRqw8W5+yED2NChqy+w aeN24oTKMlTJFhQmJaHcmoRU1Y3Ojgp0rqpAquqBJsmw6hqsuoZU1Ti9nhKBgUOCeBQFVo4gaSq7 09tjfYcuDe4uGI5bCtFIz6+4/3hDwW3tOkECcGbRMTgsVqzsfALyklJjlpdQ9IYGDv71/krTt1+I lLu63UFUhH/xfeIDh4DgJeav1TbWtoYSEDz5lTgcTU5BkT0Fn57cF5IAqiw1t78SWxJKbEkB6Ryf tqNN3eqlVNWNVI8HMgQuiv0mGB4DhwTZnt4hsOsUGVaJLQkbOnSJS/sBj+J3AQ5R4nD8SU0HsLld J2xt2xECdVvgNwVdddU/+EuQ4nsjcsciAPS7ObsNsK3+RfpCj3HDwIDSlcRvaygBDUT9AodKi7fE yxmDko9Ki63eKpPmjIFDgmxv0x59SgqC1lmbhUdRcDglDQKATddg0zRokoRkTYUA4FYUVFpscCne VvpCkqDoOnRJgkeW0cVRgW6Ocl96ZVYbdqd3wJEUb9F7iqoiRXUjSdOgSt4W/1ZNg13XoOg6HBar 7wmr0uod2MctS/DIFrT2uJCsqrDpKqxCQJUkqJKMdu4q9CotCtiO/KRU7E1rC02S4KnuZZCsabDo OqoUK/KS4zeAsn/phVAr4PfB92ftp7tEtg8QWgR1wSYJHFyxKA3x76JosKdw3VUc0/SEKUscahoU uxXj5tlsGDgkiFu2YHub+JQ6OBULJHh/3A6LFbokQYf3Zi0k2dfNrqq63jFJU9G/6JjvSfJIcmvs Sm+HKovV91R7vEGR02KFJgEQUkBRX2Nsb5OBM4uOoZujHPtat8WutHYBN8WSKAL6cF3dklTV14Xs lzYZ2NghdsPyRkM4awKagAaGBrr56mrw8RgCBGlEZ0QeOQaXP4MeJwCAu7z+ZRoiYFuNfFyD503E fZDvloOBQwL90iYDKaoHJ1WUwOI3kJSAt9+9JknQJBnlVm+3NZdi9T4VyzKcigVuxQJVkuCSFVRa bai0WBvdAGl3ejucUFGKUltS3Bvb+dvSrhO2tOvUZOs7vs7WqhsOxds1zDDcft3I/J7uXLG4wcWI Hkn3Nr8xKIxcpB2TJ1Bh3JupcEfRzTRoggYOkvwYocqouTPOFakFUmUZP3bsjp8zuqKVx1skX2Kz N1nrY38OxYodce5jbhRF9mT8r8dpic6GjyrJsAg9ZBsHj4GKWEUEA+ronpoql3h1EY2FgIapjWXg wAGeGJc4+AWzhttWP8Ea5MaiXQPV4N40AE2SUWpLQoyfD8gkXIoFllpD7gq/KoFY9uKIlh5B4KC5 ikxRKFzn5V2N2M8ioHTFGJfT428zlbQYD+Ns5GoZP8FKHJxRVqtSIONckYhaqGCN9HRnQQJyUj8R SVWFq6T+ZQwg4Mm0kV0Xdb/qJaOUrsStqN4sJQ5BAkAHSxxiyrhHn6iFcAZ5UhWuoiBLGkAEJQ7C HdvW/PHiicEoi5oBj1NMeosEo/sP7GWyEofar1KnqDBwIEqwYBd6yWnMp/ZI2jhI7op6lzGCgKfm RgYOwm284xSvagQh/KplDNTuprZgbYKcBh6IzIyMe/SJWoigjWGr2zgY4Z0O/nS9/jdJSqp3rAej FN2H4n/za+ybJIXTeC2T4lVVobtr3oJp5K6Nwds4sMQhlhg4ECVYuKLluBU7N1YDXlPsNni9ckBV RWMHYvOU1b9ME4tXryzVZcx2N7UFa0zsMnBjTjNi4ECUYOGKUQ1XN6vWX+JwnNEv1oG9KhoXOBix WiZeIyQatt1NLcGGYk9EF/fmjIEDUYKFu6hVGazEQWgNCBwsxq7b0akAACAASURBVMp7bWosAgc1 xmMlxIArTg0Xdac5Gr0Gw0GhYouBA1GChQscjDRqJABIDQgc3AbLe22BvSoa9wpqqbqKQzNQWxR3 nILNmI9E2YSMXvplNsb+ZTdj/977OCySClnSICBBgoAkCcjQAQlQJBUWqJBlDRK8n2VJhyKpUCQV VtkDWdKgQAcgoMgaLJIKRfJAkTTfMhJ073RZg0XyQIKAVXbDJrtgkTywyN48KJJ5X7ZldgGBQ62B iFxGG7hGj3xQIcO1z6gloFeF3rjA4TgjBUnxyotkwPYckXI3ovRL0y1w6zY49RR4hBVVWiocairc mh2qsMEjrHBpSbjROIPQNhnjnO0tzDFnt0RnIYAMHRbZUx1guGGXXLAoHthkF2ySC4rsDS4kSYdN dsMquyFDgyzpsEpu2BUn7IoTVnhgVdywSG7YZDcssgd22QmLVJ227PEGR+Tjrj2egN9nww2V25Cq CoM/5fn3WFHd5YimNYmRgqS4vVgs1i/NakJuWcHO0jNRrqXBqXoDAY9uhVtPgluzwyWS4NSS4dKT 4dZscGlJUIXB2hcZiMGuSpQoOmS4dXt1H7oUxOsSIUHAInt8JR7W6sDCqrhhk1ywym5YZU/1/+7q oMQFq+yCTXbBKnm8Acrx4EXSYJddsMtVkCVzBiQB9a9CBfxuYcEGh0oovyGW62P0XhX+VGd+VIGD kV7ZHK/9LnsieDNqFNy6DS4tGS6RBFWzwq3b4dZtcGtJcAs7qrQU381d1S3w6DY4tWQ41FbeeXoy VN2Kc9r/gNuwJSDtHRX9sPDw7XHNf0tinl82NQsCEjy6DR49indmh6DIKqzwQJFVbymH7IFddsGm OKura1TYJBeS5CrYLC5YoHqrbRQXrJI3ELFJLlhkFRbZ4/2+5IRNdkORoyvKDkf1e0IsWTEOwtoK SdWfjTbGvr1oB0q+HAkJWsgujMePrNFLHAJ8Px5lSW0hNXB8guNHJyav6I4R//1e+vlQSJIM0YDm bJIQQXsm2KqHG/cfw0ETClxakvdmLizVN3s7XFoSnFoK3JrN+1Qv7HBpdnh0m2/540X9Tj0FLi0J uohN8LWnvC9qH8a9FX1ikjZ5GedsJ4qSplugwQLoQCVaxzRtSRK+NiF2yekNRmQVFkmtCToUF6yS C9bqoMMqe7wlJrITVskb0FiqS1NsUnUbE0VFa0tNozN74S8B660w4MA19rJ9ES1XZrPHOSexZY2i 10BBUkoMcxKdKr9g01Z5LObpF9mT8P5vDyPX2SNmN/tYKnJnQEuSoAjhm7a3vHcCc9T8MHAgioAQ EjzCW1JShRQg8hL7ep2UuhundnwBF+QdCpi+O60d1jjPx7qcoZAlb+PX41U03qDFDYvsbQh7vNpH kVRYZLW6UazHF8QoqG4cK+vVwY7H19BWlvWa+ZIImsd5p/THTb9ti3ibdqS3x9HkVlHtl6bwvxNO w5UHd0WVRk5Ka2xp2zGiZTXdAlVYoAkFmrBAExZ4hNU7XbdAkyzQdO88j2aDCu9nVVi9/3QrPNV/ e3QbPJrN91kVVmi6gjPabMBJHUpxbkFOVNsVjFtW8HzqrcjJPTHmacfSpPQ/4KWS1wEAi7v0Qen+ dgnOUfMiFZY5BADs270DZ581KNH5aRFycnLw6k4VrVvH9qmYQnM4HLDb7VAM1IjN397iHVC1wHpZ VXRF34whDS4+j4YmdOhCh0eo8KhuVHjKUVS5HclKfv1flgBJ6IAkwaNb4dJSIctJ1cM5675/Qug1 PYjgLc2R4P0sSzpE9eZKQvjm1axC1CmGDiACi9J1IfuK3YWQACFBSN7pSvX6GlQNJeoOt+zRbRBy D7SydYQMBRbFAkW2wCJZYZEVKIoVVskCi6zE9VhqmgaXy4WUlBT8UvAzLNhfk+3qbW8MHbLvCGho jT4dLoHVQFUzwegQ+DVvJTRRgZ7thiHVGp8g1u124/H+yUhPT49L+kaxYWM2Tu5VU2pj7KPfjD14 moLu3RkFN5W8PBXp6Wmw241afH5B9T8jOqNR3zp06BB69OgR47xQKC6XC6WlpejYsR2AUYnOjgFc E/c1lJWVQYjgpXTNGQOHCOzYsQMzZ85Gfn4BMjI64LHHHkbv3nXrzBYuXIRFiz5HRUU5MjI64vHH H0GfPqxbIyKi5sN4LVsM6Pnnp+P222/Fp5/Oxy23jMPUqdODLpeWlobp06di0aJPcPPNYzFt2otN nFMiIqL4YuAQgcLCQl/JQb9+fVBYGPxlL8OHX4YuXToDAAYOHID8/AjqhYmIiEyEVRURyMwciVmz XsX48ffizTffwrXXXh12+cLCIrz99jsYPToTgLdhnsPh8M13OBwQQiAnJ/atnim4qqoqOJ1OwzaO bI6qqqp4jjchTdPgdrvh8cSwyw+F5Xa7YbVam33jyNoYOETg1lvH4c4778WDDz6C9PR0PPHEpJDL jhkzFuXl5ejbtw+eeuou3/RgDWhaYqOaRNE0DbquQ47XcLxUh6ZpPMebkK7r3OdNTNd16Lo5R6yN Brtj1nLZZSN9f69Y8RUA4Mknn8bpp5+GceNuwsyZs+B2uzF5clbINDRNw/z5C7By5Sq8/vqrdeYX FBRACIGMjIzYbwAFdeDAAWRkZCAlxTgD9TR327dvR58+HLGvqTgcDuTn5+PEE409xkJz0lKu5bW7 Y/Lxq5YVK77y/Ttu/foNuOaaq6AoCu6++y6sXLk6bBqKomD06Ezs27c/zrklIiJqWgwcItCxY0ds 3eodNS87Oxvdu3vfbLly5SpkZl7pCySyszf5igmXLFmKvn35tEVERM0L2zhEICtrAmbOnI2XXpqJ jIwOyMr6EwBvGwX/+q25c+fhmWeehdVqQc+ePTFp0sSg6bG4vOm1adMGVqvx3vvQnDX34lujsVqt aNOmTaKz0aK01Gs52zgQERFRSGzjQERERI3Gqoo4cTqdmDNnLubN+xiLF38Om80WdLmKigo888yz 2LFjJwYMOANPPfWkgd+n0PQmTszC5s1bIFW/qGjixD9ixIjhAMLv4xEjrghIR1VVfPPNsnrT9Bfp UOPNQbh9Ge4cDTfMerj9HOl5H+mxMptw+zvcNoebt3z5Cnz44TwUFRWhW7eumDDhcZx66in1fs9f cx42P9z+CXc+hruWhPtepOe4Ke8BhWUOUVjmEOs3bBQUO9OmzRDbt+8Ql1xyuXC5XCGX++c/Xxcv vzxTqKoqZsx4Sbz77vtNmEvju/vu8WLXrt1B50W6j9eu/Uk89tiEiNL0d9ttd4rVq9cIIYT44YdV 4vbb72xg7s0j3L4Md47+f3v3HRbFuT58/EsVxQZGBZV4FGmJiV3RqFixxMSGUWxEY02MxP7zPTkl VY2xlxyjsSURlGhMYixRCPZu7KJobDSNFBHBArvvH7gbWHaHYel4f66L62Jn5ilT995nnnlm9+49 2piYWK1Wq9WGhf2uDQh4Rz9PaTurPe7V7qvSRml7K62z0ryQkM36eTt37tKOHfuuqnRZKe3P0k5p +6g9Hg2vJUrp1OZZGr4DTpw8pdXFCvHJqVq5VVFIpk+fiqenR66DsRw7dpyePXtgZWVFr149OXjw cBHVsHRISkoy2clO7Tbetm07PXr8PT6HUp5ZqR1qvCxQ2pZKx6jSMOtK21ntca92X5U2SttbaZ2V 5vn59cPNrQEArVt7c/PmLVXpsirLw+YrbR+1x6PhtUQpndo8S+N3gNyqKGbx8Qk4OdUEwMnJmb/+ ulvMNSpZ0tMzGDt2PGlpj2jU6FUmTZqIo6P615EnJCRw5sxZPvxwZp7zzOtQ42WVmmPUcJh1UN7O ao/7/O7/0khpndVuj0uXIvRfknlJp2Nsf5YlhttHzfFo7FqilE7tMV4avwOkxaGYpaWl6e9n2dmV IyXlYTHXqGTZvHkjGzduYMuWTTg4OLBw4ZI8pd+xYxc+Pu2y3TNUm+fQoYM5ffos7703kRs3bjF0 6OB8rUtpldsx2q/fWwwaNISYmFgGDhygn660ndUe9/nd/6WR0jqr2R6PHz9mxYqVjBgRkKd0Oqb2 Z1lhbPuoOR6NXUuU0qk9xkvjd4AEDsWsYsWKPH78GIBHjx4/t88Fm6J7KZW1tTUBAcP444/TqtNq tVq2b99J9+7dsk1Xm+eXXy6gX78+hIQE0bDhS8yfv9DMtSjdcjtGt2zZxM6d22jVqiUffvgf/XSl 7az2uM/P/i+tlNY5t+2h1Wr59NNZvPZaG5o0aaw6XVam9mdZYGr75HY8mrqWKKVTe4yXxu8ACRyK WY0a1blzJ7NpKi4ujmrVynYzbH5kZKRjZ2enevk//jiNtbUVL7/8kll55nWo8bJKzTGa2zDrhtvZ nOM+r/u/LFBaZ2PzFi9eSvnydowc+bZZeeqU1WHzTW2f3I5HU9cSpXRqj/HS+B0ggUMRMxym2tu7 FTt27ESj0bB9+05atmxRzDUsWc6fv6AfoTMoaCNt2nirTmvYkSm3PA33jamhxp83Sseo0jDrSvvO VJ6G+yA/+7+0UlpnpXnffbeBqKhopk+fqn/sMrd0z9Ow+UrbJ7frsKlriVI6tcd4afwOkMChiGkN hqn29x9ITEwsb7zRl5iYmOf2Propq1atpl+/Afj7DyUt7RFjxoxSle7+/fscOnQYX9+uqvM03Dcz ZkxhzZp19O8/kI0bQ/RDjT9vlI7RDRuC6dPHDz+/gZw+fTbbMOtK+85Unob7wNz9X5oprbPSvG++ WcOZM2fp2fNNfH174uvbk/DwfYrpDLe30v4s7ZS2j9IxrnQtUUqn9hgvjd8BMuS0EEIIIUySIaeF EEIIYTYJHIQQQgihmgQOQgghhFBNAgchhBBCqCaBgxBCCCFUk8BBCCGEEKpJ4CCEEEII1SRwEEII IYRqEjgIUcLcunWbwMDJdO/eCz+/QXz11QrS09MZMMCf4OBNBVpWx45d+frrVXlKU1h1KeoyAD76 6FOmT59pdN60af/HJ598XqjlC1EaSeAgRAnzxRdfcvbsOXx9u9Ko0as8ffoUQP8OgeIQGRnJpUsR +s+FUZeiKCN7eVcJD99LQMAwo/MDAoYRFvY71679Waj1EKK0sS7uCgghsrt27U9q1qzJ5MmB2ab/ 8ENwMdUIvvlmLfXr18PLyxNra+tCqUtRlJHVrl2/UatWLZNvT23Y8GVq1qzJb7/tZvz4sYVaFyFK E2lxEKKEcXNrwJ07d1i+fAWPHz/WT896W6Fjx64cOnSYyZOn0a3b6/zzn/8mOTmZjz/+jG7dXmfw 4OEcOnQ4RzqAr79eRceOOV/YA/DJJ5/z+uu96dfvLUJDwwCYMeP/cfToMYKCNtKrV58ceT54kMLs 2XPp29ePvn39mDt3Pqmpqfrltmz5kfHj38fXtyfDh4/kxImTOcrNrYy8rO/du38xbdr/0aPHG7zz zlguXLhgdF3Pnj1Pw4YvAxASspm+ff14/fXezJu3UL/MK6801L8hVQiRSQIHIUqYqVMnU7t2LUJC fmDEiFHcvHnL6HLz5y+iQQNXevToxqFDhxk37j3s7MoxZIg/KSkpLFy4JM9l9+vXm9mzP8Pd3Y1l y/4HwMiRbwPQrZsvCxfOy5Fm6dJl/P57ON27d6d7927s2RPKV1+t0M9fvnwF7u4NGDp0MElJicyb tyBHHrmVkZf1Xbp0OQkJiSxcOI/atZ2ZO3e+0fxiY2P1r0pfvXotrVt789FH/6Zdu9f0y7i41CE6 OiaXrSbE80VuVQhRwrz4ogtr1qxi7dr1bNgQzJw5c1m+PGcQ0LRpY959dxwA+/cfpFq1avrXICcn J7N5849G8zfVdeDEiZOsXPkNt27d5tGjR/rpHh7uADg6OtCggWuOdEeOHKNLl86MHTvqWdkPOHjw MFOmTAKgfft2TJoUqFiv3MrIy/qePn2GR48eMWXKdAAsLS2M5peamkqFChUA8PT0ICwsnPLlKxAQ MFS/TIUKFfStJ0KITNLiIEQJkp6eTnp6OjY2Nowe/Q7Ozk5cv37D6LIvvPCC/n8bGxuqV6+u/2xr a5tt2SdPnuj/v3PnjtH8Zs/+AltbW9asWUW/fn1U19nS0iJbR0atVpPtc82aNU3WKy/Urq+FhQWd O3dk27atbNu2lZ9/Nh5A2dnZkZaWBsDs2Z/x9tvD2b17jz7ggMzgonx5O7PrLERZJC0OQpQgiYmJ jBs3gdatW2FhYUFc3B2aNm2SrzydnGqye3coDg4OxMfHs2/ffqPLPXnyBGtra6Kiojhy5Fi2edWq VePw4aPY2NgwYkRAtnmtW7cmNDSMKlWqABAa+judOnXQz7cw/oM/B6Uy8qJZs6aEh++jefPmvPBC NU6fPmP0yQlnZyeio6MB+PXX7bz88ku0bfsaBw4c0C8TFRWFs7Oz2XURoiySFgchShB7e3vc3BoQ Hr6PsLBwWrZswbRpk/OV56RJgVSuXJm1a9dz/vxFk08IBAQMJyLiMl9+uYBevXpmmzd+/FhiYmL4 7bfdOdJNmDCezp07sWPHTnbs2EnHjh14993xea6nUhl5MXHiBLy9W7Fw4WKmTp3B8eM5O2MCNGzY kDNnzgHwyy/b+eCDKRw/foIJE97VL3P+/AUaNmyYr/oIUdZYxCenagGuR0bQLJ+/bIQQorSIiIhg /Pj3WbZsMS+95JVj/oULF5kwIZCvvlqKp6dHMdRQiJLh5Kk/qOfmqf8sLQ5CiOeSp6cnPj7tWbt2 vdH53377PT4+7SVoEMKAtDgIIYQQwiRpcRBCCCGE2SRwEEIIIYRqEjgIIYQQQjUJHIQQQgihmgQO QgghhFBNAgchhBBCqCaBgxBCCCFUk8BBCCGEEKpJ4CCEEEII1SRwEEIIIYRqEjgIIYQQQjUJHIQQ QgihmgQOQgghhFBNAgchhBBCqCaBgxBCCCFUk8BBCCGEEKpJ4CCEEEII1SRwEEIIIYRqEjgIIYQQ QjUJHIQQQgihmgQOQgghhFBNAgchhBBCqCaBgxBCCCFUk8BBCCGEEKpJ4CCEEEII1SRwEEIIIYRq EjgIIYQQQjUJHIQQQgihmgQOQgghhFBNAgchhBBCqCaBgxBCCCFUk8BBCCGEEKpJ4CCEEEII1SRw EEIIIYRqEjgIIYQQQjUJHIQQQgihmrXunzt373Hy1B/FWRchhCDuzl182rct7moIUaLs3XeA6tWr F3c1gCyBw6On6WBtW5x1KVWio6OpXbt2cVdDiLLHQhpChcjh2XnRsnlTs5IfO3EqX2mzkjNUCCGE EKpJ4CCEEEII1SRwEEIIIYRqEjgIIYQQQjXr3BcpGx4+fMiduFgSExN58vgJALblbHFwcKCmkzP2 9vbFXEMhSic5t4QwLiExkStXIomKjuFhahoA9hXKU6d2Ldzd3XB0cCjmGpqnzAcOGo2G69euERsb m2NeWmoaaalpxETH4OzsTD1XVywtC74R5qMPZ+Zp+f98Okt1vsaW3RsWCoBPp84AXI28wrkzp+nr 91ae6iGEkpJwbg3298/T8huCglQvezUykgZubnmtkhBkZGRw9OhxLl2+kmPe/ftPuX8/mQsXI/Dy cKdVqxZYWVkVQy3NV6ZvVWg0Gi6cP2/0wmYoNjaWC+fPo9FoiqBmhWdvWCgXL5zj4oVz7A0L5Wrk Fbb+sInmLb2Lu2qiDHkezq1t27YZnX7vr7+AzC+H5cuWERUVVZTVEiVcRkYGu3aHGg0aDF26fIVd u0PJyMgogpoVnGwtDqmpqQQGTmLlyhU5Fty7dx+//PIL1atXZ8aM6UVWwfy4fu0a95OSALCysjK5 c3Tz7iclcf3PP3Ft0KDA65KXVgRz6YKG4SNHA7B+9UqOHj6I/7C3cXnxRbPzNeXIkaP8+ut2Hj16 RIUK5XnjjV40b97crLxGjx7LokULqFChQgHXUhSGknRuqW1FyGvrBJBjvUJCQjh/7hyDhwzh97Aw qjo4YGFhked8lbTv1A0HBwesra3wcHcj8P13qVmjRoGWURxSUlLo+WZ/9oXtyjGvfadubP95MxUr ViyGmhWso0ePExsbB4C1tTXp6elGl9PNi42N4+ixE7Rp3apAyj92/AQALVvkfi3Oy7JZqW5x2Lbt Vz74IJDp06flqYDi8vDhQ/2vISsrK1p4e+Po6JhjOUdHR1p4e+ubimJjYnj48GGR1rUgZA0a7O3t sbe3Z/jI0Qx9e2ShBA3nzp1n06YQxowZxdy5cxg1ahQbNgRz6VKEqvRnz54zeUKZm87cPEuC0lT3 5+ncsrKy0v9t2bKFtNRUGjdpwtYff6SqgwN25coVSrlLFswlJOhbqlSpwrwFSwqlDFHwEhIT9S0N 1tbW+A8agItLnRzLubjUwX/QAKytM3+7X4q4TEJiYr7LP3b8BAsWLc1TmgWLluoDCLVUBw7379/H 0dGxwKPrwnIn7u8m1IyMDK5cuoSHp1e2C5yjoyMenl5cuXQp2y+LO3FxRVrX/Pjow5l89OHMbEGD jr29PbVq5zxoC8Lu3Xvo0qUzLi4uQOaJ0KVLZ/bsCc01rUajYcOGIJ48eZKnMpXSmZtnSVDa6v68 nFsAR48e5ejRo3y7fj0pDx5QuXJlLAAPD49CCxp0LC0tebNXT86dO1+o5YiCc+VKpP7/9PR0wvfu p6NP+2zBg4tLHTr6tCd87/5sPxauXLmar7J1QcOkwAmqWxBatmjOpMAJeQ4e9LcqFi1azGuvtTG6 0Pr136LValm0aAkzZ84gPj6etWvXERd3B2dnZ0aMCMDhWe/Qv/66x7p167h9O4o6deowbdoUIHtT tOEtkd279xAaGkZGRgaNGr3K0KFDVK+AKYkG0VtCQgKXIzIvcJcjLgHo/09ISDBImwC45rsORUHt LZCCFhsbS69ePbNNc3V1Zd++/frPpvb5qlWriY+PZ9GiJdjZlWPSpA+y5ZOcnMzateuIiYmlUqWK DB06hLp16yqmMzbPVD4AgYGT6NXrdUJDw3j69Cl9+rzJvXvxHDlyBI1GS//+/fD2bqVf1te3K+Hh e6lUqRJjxozCyclJsa4AU6dOo2vXrvz2227mzZvLgQMH2bVrF48fP8HGxoY+fd6kRYsWRuuudL4Y 5qtUBzm38ifySuavRxtb22K5jabRaLCxtdF/jrtzl1lzviQqKpq6dV2YOX0qNjY2DBwSwJZN32Nv b09ycjK9+w9i/ZqvcalTh4epqfi9NYSg79ai1WqY9cV8bty8SdUqVZgyaSIe7pkdQPv4DWLggP4E b9rMT5uDs9Xj1x27CAreRNqjR9ja2jJqRACdO3UAoOeb/Rni/xZbf9pGRkYG48a8g2/XzI7Zt27d 5uPPZpOYmETXLp1UrbOxdaxe/QUANoZsZvOWraSnZ9CmjTdTJ01UnJ6YmGhyfU2lyY+o6Jhsn2/f juL3vfvo6NOe3/fuA9D/f/t2lEHaaKCFWeWaEzToZA0e1KbXBw6BgRO5etV4xDN8+DD27z9AYOD7 AAQFBdOkSRM6derInj2hBAdvYvz4sQBs2LABT09PpkyZTEpKiqqK//TTz/zrX/+kRo0axMfHq0qT G91jYVnpLnCeL70MaIm4eDHHhc1U2pJK1yfCwsKCN/v2p3HTZkVSbkpKSo7H7OztK5CcnJxr2jFj RnH8+HECA983ejEODt5E27av0bRpUyIiLrNu3Xr+/e9/KaYzNs9UPpDZn+fp06fMnv05169fZ9as Ofj59WfOnNlcuHCBNWvW6QOH1NRUKlWqxNy5cwgNDWXjxhD9uaBURnLyAzQaDXPnzgHA3d2Nxo0b UbFiRaKiopg/fyEtWrTIdXsYMsxXqQ5ybuXP7du3AbAtV466detSlO2t6enp/PjTL7TN8oNu0eJl tG/3Gv379iZk848sXvYVn/z3XzRt0ph9+w/So7sv+w8cokWzphw8dIRBb/mxd98BmjZtTNWqVfjo 01m83qMbPu3b8sfpM8yZO5/VK78CICkxCY1Gw48hG3LUpfGrr9C2jTdVqlTh2p/XmTR1hj5wSElJ QavVEhL8LSdOnuKz2XP1gcPCJcvp7tsFv/59+WHLVlXrbWodAVav/ZZVK5ZSp3Zt4uLu6NOYmr54 2f9Mrq+pNPmhe+QyK13w0KmDD6AlLDxn0GAqrRoREZeZ9cU8Zk6fkuegQUcXPMz6Yh6zPvkvnp4e istn6xzZtGkTgoM35lpIZORV/S+X5s2bsW3br/p5ly9fYdiwYVhYWFCpUiVVlW7Xri3Ll/+Pnj27 06KFeRFX3mihSC8BudM9WpnXFgTd8gnx8axfswpAHzycPnWSWzdv8EaffgV+i6lixYo57lc/fJhK 5cqV8533pUsXiYyMJCgo81g09zG+3PJp06Y1AP/4xz/QarW0atUSgHr16nH//v1syzZu3AiAZs2a 8fPPf/e2VypDq9Xi7d1KPy01NY0NG4KIiYlFq9Xy4MEDs9bLMF+lOsi5ldkpckNQUJ4exdRxd3cH IEOj4XJEBJ6engBotFqsLC3RarUFWled9ydNQ6PR0LJFM94bP0Y//cy580yelBm0dvBpx7r13wPQ o3tXfvr5V3p09yV8337GjRnF4qXLGfSWH7v3hNG/b28Ajp84xZkz51i8NPPLM+uxotFq8e3S2ej5 9iAlhfmLlnLj5k3QQlJS9vOjm28XADzc3YmP/ztgvHQpgpnTM1udfdq11ZerxNQ6AvTq2Z0P//0x QwcP0gcuStOV1tdUmsJT8s4Nc2ULHCwt1T1LmvVLSKvVZjt5bGxsyO076tGjx9k+Dxz4Frdv32bz 5h85fvwEEya8p6oeSmzL2ZJmEMHp7rtGXLwImG5OtS1X+t4S6litGsNHjNIHDwDhYXuoWtWBX7Zu KfDgwcWlDlevXtNfWAGuXr2qbyI3ZLjPlWi1MG3aFGrksyd5bvnY2mbuZ912sbGxMbpcZl6Zx7hG ozWYrlxGuSz3wb/++mt69OjBxIltePAghalT1XU0Nrbti8TWoAAABmBJREFUsuarVAc5twqGlaUl bu7uXL58mfqurly4cAEHBwf+YeJ4z68lC+by4osuOaZbZj2HtaAl83hs492K+QuXEBMby8OHqbjW r0dGhobbUVFcv3ED71bPgkatlsUL5lKnjvE3+5Yvb2d0+n8//pyhgwfSs8enJCXdp4/foOzp7DLT Gb3EPJumdqwCU+sI8P5744i8eo0VK1cT9vteZn32keJ0pfU1mSYf7CuU5/79p9mm6fo0hIUr36qw r1DerDI9PT2YOX2K2bcq4O9bHTOnT8m1tQEMOkeeOXNGVSEeHu6cPJn5ms2TJ0/hlmWQlPr163H0 6DEg+73QypUrc+PGTQCOHDmin/706VPu3r2Li4sLAwb4ERmZvw4iOg4GI3LpLmy6i1nW+7KGPcId HHL2EC8sus6Nhv+bQxc8hIftITxsD8NHjGJIwAiSEhP5ZeuWgqoyAF27dmHPnlB9U+7t27cJDQ3D 17erfhlT+xzAzs6Oe/eMN52/9JIXe/aEotFo0Gg0xMTEqkpnOE8pn7z6+3g/Sf369c0qIzU1jRdf dMHS0pIDBw4o1l1p2xkyVYfn/dwa7O+vfwQz6//msrK0pIGbG39eu0ajRo2oWaNG5i/wItS48avs 3Zd57ITv28+rr7wCZPbg79TBh1Wr1/Has5a01t4t+WbNejp37KDvvd+8eVNCtmwlIyODjIwMbty8 parclJQU3NwaYGlpybbtO1TX18vLgwMHDwNw4NDhfK3j48ePiY6Owa2BK++NG82ZZ51GTU1XWl+l NPlRp3atbJ91QYMuUMja58HwaYs6tY0Hc2qY28kRzOsfoW9xWLJkCT4+PpQvn3vUM2jQQNasWcvO nbtwcqrJ228H6Of5+w9i9eo1bN++nbp16zJlymQA+vfvx+rVa7CysqJjxw76ctLTM1i+/H88fPgQ a2trBgzwy9NKm1LTyZmYZx1VrKyscPfy4vKl7L+AdBc4dy8vjh85ou/9rev4VhR0txpMjQKZV7rg Qfc/gP+wAIK/W5/vvLPy8vKif/9+rFixksePH2NnZ4e//0BcXf/+UjW1zwG6d+/GggULKFfOjtmz P8+Wt7//IL777numTJmKRqOlY8cO9OnTO9d0hvOU8smrhIQEpk2bQaVKFRkzZrSquhrq168vCxYs onz58nTo4EO1Z/vHWN2Vtp0hU3V43s8t3a0J3a2KvLgaGWmyz1eFChWIehYwW1pYkJaamr+K5kHg hHf5fM6XBAWHUKdObWbOmKqf16O7L6PHTWBkwDAA2rT2ZuU3a1m1Ypl+mQ/ef48vFyyid/9BaLUa +vZ+g1Ej38613DGjRzJl2kzsK9rTt/cbONVU1xo4ccK7fPzpLL4P2kivnj1UDT9uah3TMzL4538+ 5kHyA6xtrHlv3GjF6Urrq5QmP9zd3bhwMfORdGtrazr4tMvRuqALHjr4tCMoOET/ZIWu06a5zOnk aG6nSov45FQtQHh4OHXrFvzz/sXpWmRktufNcxukBsC5Vi1Vg9RER0dTW2WEqNSKkJ/AobCGshbZ jR49lsWLF6oKqp8XhXluxcXE4NPO+BNehpRaEfITOIAMOS3Mc+jQkWxjOeQ2ABSAl6dHrgNA7d1/ iOovVKNl86aKy5ka1OnYiVM50qodAOrYiVM08PD6u+6KS5dy9VxdSU1L435SkuKQnrp5VatWpV6W ZuiCouYL25wvdQkEik5hdYIrrUrKuaUmIDAnaAAkaBBmadWqBUnJycTGxikO6qabV8vZiVYtzXsa wpi8tByY+xRGmX5XhaWlJS83bIhzrVq5LutcqxYvNXylUF7EI0RZI+eWEMZZWVnRrWtnvFR0MvTy 9MC3a5dS95KrMt3iAJkXONcGDXByduZOXByJiQkGr/51pKaTk7z6V5hk7N0tQs4tIUyxsrKiTetW eHq6c+XKVaKiow1eq10bd/cG8lrtks7e3p76rq6UplHrhCgN5NwSwjhHB4dnj8IWxRgqRUfaDoUQ QgihmgQOQgghhFBNAgchhBBCqCaBgxCiZLGy4l4BvZBLiLLg3r17UIKevNAPAHX9+p/FXZdSJS8D QAkh1NNoNNz96y/IyKCiyhflCVFWpTx4gIW1FdVfqI42/WnuCQpJ1gGg9IGDEEIIIURu5FaFEEII IVSTwEEIIYQQqkngIIQQQgjV/j8epZ6ejIGTFQAAAABJRU5ErkJggg== "
       preserveAspectRatio="none"
       height="365"
       width="526" />
    <text
       xml:space="preserve"
       style="font-style:normal;font-weight:normal;font-size:30px;line-height:1000%;font-family:Sans;letter-spacing:0px;word-spacing:0px;fill:#000000;fill-opacity:1;stroke:none;stroke-width:1px;stroke-linecap:butt;stroke-linejoin:miter;stroke-opacity:1;"
       x="-354.79453"
       y="-65.446037"
       id="text8701"
       sodipodi:linespacing="1000%"><tspan
         sodipodi:role="line"
         id="tspan8703"
         x="-354.79453"
         y="-65.446037" /></text>
    <text
       xml:space="preserve"
       style="font-style:normal;font-weight:normal;font-size:40px;line-height:1000%;font-family:Sans;letter-spacing:0px;word-spacing:0px;fill:#000000;fill-opacity:1;stroke:none;stroke-width:1px;stroke-linecap:butt;stroke-linejoin:miter;stroke-opacity:1"
       x="-278.32779"
       y="758.21368"
       id="text8705-7-3"
       sodipodi:linespacing="1000%"
       inkscape:export-xdpi="90"
       inkscape:export-ydpi="90"><tspan
         sodipodi:role="line"
         id="tspan8707-5-6"
         x="-278.32779"
         y="758.21368"
         style="font-style:normal;font-variant:normal;font-weight:bold;font-stretch:normal;font-size:20px;font-family:Sans;-inkscape-font-specification:'Sans Bold';fill:#ff0000;fill-opacity:1">name</tspan></text>
    <text
       xml:space="preserve"
       style="font-style:normal;font-weight:normal;font-size:40px;line-height:1000%;font-family:Sans;letter-spacing:0px;word-spacing:0px;fill:#000000;fill-opacity:1;stroke:none;stroke-width:1px;stroke-linecap:butt;stroke-linejoin:miter;stroke-opacity:1"
       x="-395.62708"
       y="693.23865"
       id="text8705-7-3-5"
       sodipodi:linespacing="1000%"
       inkscape:export-xdpi="90"
       inkscape:export-ydpi="90"><tspan
         sodipodi:role="line"
         id="tspan8707-5-6-3"
         x="-395.62708"
         y="693.23865"
         style="font-style:normal;font-variant:normal;font-weight:bold;font-stretch:normal;font-size:20px;font-family:Sans;-inkscape-font-specification:'Sans Bold';fill:#ff0000;fill-opacity:1">xaxis</tspan></text>
    <text
       xml:space="preserve"
       style="font-style:normal;font-weight:normal;font-size:40px;line-height:1000%;font-family:Sans;letter-spacing:0px;word-spacing:0px;fill:#000000;fill-opacity:1;stroke:none;stroke-width:1px;stroke-linecap:butt;stroke-linejoin:miter;stroke-opacity:1"
       x="-659.54126"
       y="577.43903"
       id="text8705-7-3-5-5"
       sodipodi:linespacing="1000%"
       inkscape:export-xdpi="90"
       inkscape:export-ydpi="90"><tspan
         sodipodi:role="line"
         id="tspan8707-5-6-3-6"
         x="-659.54126"
         y="577.43903"
         style="font-style:normal;font-variant:normal;font-weight:bold;font-stretch:normal;font-size:20px;font-family:Sans;-inkscape-font-specification:'Sans Bold';fill:#ff0000;fill-opacity:1">yaxis</tspan></text>
  </g>
</svg>
